{
  "images" : [
    {
      "idiom" : "universal",
      "filename" : "settings-cogwheel-button.png",
      "scale" : "1x"
    },
    {
      "idiom" : "universal",
      "filename" : "settings-cogwheel-button-white.png",
      "appearances" : [
        {
          "appearance" : "luminosity",
          "value" : "dark"
        }
      ],
      "scale" : "1x"
    },
    {
      "idiom" : "universal",
      "filename" : "settings-cogwheel-button@2x.png",
      "scale" : "2x"
    },
    {
      "idiom" : "universal",
      "filename" : "settings-cogwheel-button-white@2x.png",
      "appearances" : [
        {
          "appearance" : "luminosity",
          "value" : "dark"
        }
      ],
      "scale" : "2x"
    },
    {
      "idiom" : "universal",
      "filename" : "settings-cogwheel-button@3x.png",
      "scale" : "3x"
    },
    {
      "idiom" : "universal",
      "filename" : "settings-cogwheel-button@3x-1.png",
      "appearances" : [
        {
          "appearance" : "luminosity",
          "value" : "dark"
        }
      ],
      "scale" : "3x"
    }
  ],
  "info" : {
    "version" : 1,
    "author" : "xcode"
  }
}